{
  "filters": {
    "investors": ["1002", "1003", "1004", "1005"]
  },
  "transactions": {
    "codes": {
      "reversals": [102,104,125,127,141,143,151,181,183,191,201,203,441,445,449,453,455,461,463,465,487,627,725,941,945,949,953,989],
      "debits": [100,102,104,125,127,141,143,151,181,183,191,201,203,441,445,449,453,455,461,463,465,487,627,725,941,945,949,953,989,440,444,448,452,454,464,486,940,944,948,952,988]
    }
  }
}
